Activities_P1
…
## The following objects are masked from 'package:stats':
## 
##     filter, lag

## The following objects are masked from 'package:base':
## 
##     intersect, setdiff, setequal, union

# piping usage:
total_day <- activity %>% group_by(date) %>%summarise(total_steps=sum(steps,na.rm=TRUE),na=mean(is.na(steps))) %>% print

## # A tibble: 53 x 3
##    date       total_steps    na
##    <date>           <int> <dbl>
##  1 2012-10-02         126    0.
##  2 2012-10-03       11352    0.
##  3 2012-10-04       12116    0.
##  4 2012-10-05       13294    0.
##  5 2012-10-06       15420    0.
##  6 2012-10-07       11015    0.
##  7 2012-10-09       12811    0.
##  8 2012-10-10        9900    0.
##  9 2012-10-11       10304    0.
## 10 2012-10-12       17382    0.
## # ... with 43 more rows
…
